…
``` r
met_lz <- lazy_dt(data, immutable = FALSE)
met_lz
```

    ## Source: local data table [2,377,343 x 32]
    ## Call:   `_DT1`
    ## 
    ##   USAFID  WBAN  year month   day  hour   min   lat   lon  elev wind.dir wind.d…¹
    ##    <int> <int> <int> <int> <int> <int> <int> <dbl> <dbl> <int>    <int> <chr>   
    ## 1 690150 93121  2019     8     1     0    56  34.3 -116.   696      220 5       
    ## 2 690150 93121  2019     8     1     1    56  34.3 -116.   696      230 5       
    ## 3 690150 93121  2019     8     1     2    56  34.3 -116.   696      230 5       
    ## 4 690150 93121  2019     8     1     3    56  34.3 -116.   696      210 5       
    ## 5 690150 93121  2019     8     1     4    56  34.3 -116.   696      120 5       
    ## 6 690150 93121  2019     8     1     5    56  34.3 -116.   696       NA 9       
    ## # … with 2,377,337 more rows, 20 more variables: wind.type.code <chr>,
    ## #   wind.sp <dbl>, wind.sp.qc <chr>, ceiling.ht <int>, ceiling.ht.qc <int>,
    ## #   ceiling.ht.method <chr>, sky.cond <chr>, vis.dist <int>, vis.dist.qc <chr>,
    ## #   vis.var <chr>, vis.var.qc <chr>, temp <dbl>, temp.qc <chr>,
    ## #   dew.point <dbl>, dew.point.qc <chr>, atm.press <dbl>, atm.press.qc <int>,
    ## #   rh <dbl>, CTRY <chr>, STATE <chr>, and abbreviated variable name
    ## #   ¹​wind.dir.qc
    ## 
    ## # Use as.data.table()/as.data.frame()/as_tibble() to access results

## Question 1: Representative station for the US

Across all weather stations, what is the median station in terms of
temperature, wind speed, and atmospheric pressure? Look for the three
weather stations that best represent continental US using the
`quantile()` function. Do these three coincide?

``` r
met_avg_lz <- met_lz %>%  group_by(USAFID)%>% summarise(
  across (c(temp, wind.sp, atm.press), function(x) mean(x, na.rm=TRUE))) 
met_avg_lz
```

    ## Source: local data table [1,595 x 4]
    ## Call:   `_DT1`[, .(temp = (function (x) 
    ## mean(x, na.rm = TRUE))(temp), wind.sp = (function (x) 
    ## mean(x, na.rm = TRUE))(wind.sp), atm.press = (function (x) 
    ## mean(x, na.rm = TRUE))(atm.press)), keyby = .(USAFID)]
    ## 
    ##   USAFID  temp wind.sp atm.press
    ##    <int> <dbl>   <dbl>     <dbl>
    ## 1 690150  33.2    3.48     1010.
    ## 2 720110  31.2    2.14      NaN 
    ## 3 720113  23.3    2.47      NaN 
    ## 4 720120  27.0    2.50      NaN 
    ## 5 720137  21.9    1.98      NaN 
    ## 6 720151  27.6    3.00      NaN 
    ## # … with 1,589 more rows
    ## 
    ## # Use as.data.table()/as.data.frame()/as_tibble() to access results
…
